R for reproducible scientific analysis
…
We can join the two data.frames using any of the dplyr functions. We will pass the results to str to avoid printing more than we can read, and to get more high-level information on the resulting data.frames.

left_join(gapminder, continents) 

## Joining, by = "continent"

## Warning: Column `continent` joining factor and character vector, coercing
## into character vector

## # A tibble: 1,704 x 11
##        country continent  year lifeExp      pop gdpPercap   total_gdp
##         <fctr>     <chr> <int>   <dbl>    <int>     <dbl>       <dbl>
##  1 Afghanistan      Asia  1952  28.801  8425333  779.4453  6567086330
##  2 Afghanistan      Asia  1957  30.332  9240934  820.8530  7585448670
##  3 Afghanistan      Asia  1962  31.997 10267083  853.1007  8758855797
##  4 Afghanistan      Asia  1967  34.020 11537966  836.1971  9648014150
##  5 Afghanistan      Asia  1972  36.088 13079460  739.9811  9678553274
##  6 Afghanistan      Asia  1977  38.438 14880372  786.1134 11697659231
##  7 Afghanistan      Asia  1982  39.854 12881816  978.0114 12598563401
##  8 Afghanistan      Asia  1987  40.822 13867957  852.3959 11820990309
##  9 Afghanistan      Asia  1992  41.674 16317921  649.3414 10595901589
## 10 Afghanistan      Asia  1997  41.763 22227415  635.3414 14121995875
## # ... with 1,694 more rows, and 4 more variables: log_gdp <dbl>,
## #   area_km2 <dbl>, population <dbl>, percent_total_pop <dbl>

right_join(gapminder, continents)

## Joining, by = "continent"

## Warning: Column `continent` joining factor and character vector, coercing
## into character vector

## # A tibble: 1,705 x 11
##    country continent  year lifeExp      pop gdpPercap    total_gdp
##     <fctr>     <chr> <int>   <dbl>    <int>     <dbl>        <dbl>
##  1 Algeria    Africa  1952  43.077  9279525  2449.008  22725632678
##  2 Algeria    Africa  1957  45.685 10270856  3013.976  30956113720
##  3 Algeria    Africa  1962  48.303 11000948  2550.817  28061403854
##  4 Algeria    Africa  1967  51.407 12760499  3246.992  41433235247
##  5 Algeria    Africa  1972  54.518 14760787  4182.664  61739408943
##  6 Algeria    Africa  1977  58.014 17152804  4910.417  84227416174
##  7 Algeria    Africa  1982  61.368 20033753  5745.160 115097120653
##  8 Algeria    Africa  1987  65.799 23254956  5681.359 132119742845
##  9 Algeria    Africa  1992  67.744 26298373  5023.217 132102425043
## 10 Algeria    Africa  1997  69.152 29072015  4797.295 139467033682
## # ... with 1,695 more rows, and 4 more variables: log_gdp <dbl>,
## #   area_km2 <dbl>, population <dbl>, percent_total_pop <dbl>
…
There’s another problem in this data.frame – it has two population measures, one by continent and one by country and it’s not clear which is which! Let’s rename a couple of columns.

right_join(gapminder, continents) %>% 
  rename(country_pop = pop, continent_pop = population)

## Joining, by = "continent"

## Warning: Column `continent` joining factor and character vector, coercing
## into character vector

## # A tibble: 1,705 x 11
##    country continent  year lifeExp country_pop gdpPercap    total_gdp
##     <fctr>     <chr> <int>   <dbl>       <int>     <dbl>        <dbl>
##  1 Algeria    Africa  1952  43.077     9279525  2449.008  22725632678
##  2 Algeria    Africa  1957  45.685    10270856  3013.976  30956113720
##  3 Algeria    Africa  1962  48.303    11000948  2550.817  28061403854
##  4 Algeria    Africa  1967  51.407    12760499  3246.992  41433235247
##  5 Algeria    Africa  1972  54.518    14760787  4182.664  61739408943
##  6 Algeria    Africa  1977  58.014    17152804  4910.417  84227416174
##  7 Algeria    Africa  1982  61.368    20033753  5745.160 115097120653
##  8 Algeria    Africa  1987  65.799    23254956  5681.359 132119742845
##  9 Algeria    Africa  1992  67.744    26298373  5023.217 132102425043
## 10 Algeria    Africa  1997  69.152    29072015  4797.295 139467033682
## # ... with 1,695 more rows, and 4 more variables: log_gdp <dbl>,
## #   area_km2 <dbl>, continent_pop <dbl>, percent_total_pop <dbl>
…
