R for reproducible scientific analysis
…
Those messages and conflicts are normal. The conflicts are R telling you that there are two packages with functions named “filter” and “lag”. When R gives you red text, it’s not always a bad thing, but it does mean you should pay attention and try to understand what it’s trying to tell you.

Remember that you only have to install each package once (per computer), but you have to load them for each R session in which you want to use them.

You also have to load any data you want to use each time you start a new R session. So, if it’s not already loaded, read in the gapminder data. We’re going to use tidyverse’s read_csv instead of base R’s read.csv here. It has a few nice features; the most obvious is that it makes a special kind of data.frame that only prints the first ten rows instead of all 1704.

# gapminder <- read_csv('data/gapminder-FiveYearData.csv')
class(gapminder)

## [1] "tbl_df"     "tbl"        "data.frame"

gapminder

## # A tibble: 1,704 x 6
##        country continent  year lifeExp      pop gdpPercap
##         <fctr>    <fctr> <int>   <dbl>    <int>     <dbl>
##  1 Afghanistan      Asia  1952  28.801  8425333  779.4453
##  2 Afghanistan      Asia  1957  30.332  9240934  820.8530
##  3 Afghanistan      Asia  1962  31.997 10267083  853.1007
##  4 Afghanistan      Asia  1967  34.020 11537966  836.1971
##  5 Afghanistan      Asia  1972  36.088 13079460  739.9811
##  6 Afghanistan      Asia  1977  38.438 14880372  786.1134
##  7 Afghanistan      Asia  1982  39.854 12881816  978.0114
##  8 Afghanistan      Asia  1987  40.822 13867957  852.3959
##  9 Afghanistan      Asia  1992  41.674 16317921  649.3414
## 10 Afghanistan      Asia  1997  41.763 22227415  635.3414
## # ... with 1,694 more rows
…
We can also apply multiple conditions, e.g. the US after 2000:

filter(gapminder, country == "United States" & year > 2000)

## # A tibble: 2 x 6
##         country continent  year lifeExp       pop gdpPercap
##          <fctr>    <fctr> <int>   <dbl>     <int>     <dbl>
## 1 United States  Americas  2002  77.310 287675526  39097.10
## 2 United States  Americas  2007  78.242 301139947  42951.65

We can also use “or” conditions with the vertical pipe: |. Notice that the variable (column) names don’t go in quotes, but values of character variables do.

filter(gapminder, country == "United States" | country == "Mexico")

## # A tibble: 24 x 6
##    country continent  year lifeExp      pop gdpPercap
##     <fctr>    <fctr> <int>   <dbl>    <int>     <dbl>
##  1  Mexico  Americas  1952  50.789 30144317  3478.126
##  2  Mexico  Americas  1957  55.190 35015548  4131.547
##  3  Mexico  Americas  1962  58.299 41121485  4581.609
##  4  Mexico  Americas  1967  60.110 47995559  5754.734
##  5  Mexico  Americas  1972  62.361 55984294  6809.407
##  6  Mexico  Americas  1977  65.032 63759976  7674.929
##  7  Mexico  Americas  1982  67.405 71640904  9611.148
##  8  Mexico  Americas  1987  69.498 80122492  8688.156
##  9  Mexico  Americas  1992  71.455 88111030  9472.384
## 10  Mexico  Americas  1997  73.670 95895146  9767.298
## # ... with 14 more rows
A good, handy reference list for the operators (and, or, etc) can be found here.

select()

filter returned a subset of the data.frame’s rows. select returns a subset of the data.frame’s columns.

Suppose we only want to see country and life expectancy.

select(gapminder, country, lifeExp)

We can choose which columns we don’t want

select(gapminder, -continent, income = gdpPercap)

## # A tibble: 1,704 x 5
##        country  year lifeExp      pop   income
##         <fctr> <int>   <dbl>    <int>    <dbl>
##  1 Afghanistan  1952  28.801  8425333 779.4453
##  2 Afghanistan  1957  30.332  9240934 820.8530
##  3 Afghanistan  1962  31.997 10267083 853.1007
##  4 Afghanistan  1967  34.020 11537966 836.1971
##  5 Afghanistan  1972  36.088 13079460 739.9811
##  6 Afghanistan  1977  38.438 14880372 786.1134
##  7 Afghanistan  1982  39.854 12881816 978.0114
##  8 Afghanistan  1987  40.822 13867957 852.3959
##  9 Afghanistan  1992  41.674 16317921 649.3414
## 10 Afghanistan  1997  41.763 22227415 635.3414
## # ... with 1,694 more rows

And we can rename columns

select(gapminder, ThePlace = country, HowLongTheyLive = lifeExp)

## # A tibble: 1,704 x 2
##       ThePlace HowLongTheyLive
##         <fctr>           <dbl>
##  1 Afghanistan          28.801
##  2 Afghanistan          30.332
##  3 Afghanistan          31.997
##  4 Afghanistan          34.020
##  5 Afghanistan          36.088
##  6 Afghanistan          38.438
##  7 Afghanistan          39.854
##  8 Afghanistan          40.822
##  9 Afghanistan          41.674
## 10 Afghanistan          41.763
## # ... with 1,694 more rows
…
Remove the continent column

Make a scatter plot of gdpPercap vs. population colored by country

Advanced How would you determine the median population for the North American countries between 1970 and 1980?

Bonus This can be done using base R’s subsetting, but this class doesn’t teach how. Do the original challenge without the filter and select functions. Feel free to consult Google, helpfiles, etc. to figure out how.

arrange()

You can order the rows of a data.frame by a variable using arrange. Suppose we want to see the most populous countries:

arrange(gapminder, pop)

## # A tibble: 1,704 x 6
##                  country continent  year lifeExp   pop gdpPercap
##                   <fctr>    <fctr> <int>   <dbl> <int>     <dbl>
##  1 Sao Tome and Principe    Africa  1952  46.471 60011  879.5836
##  2 Sao Tome and Principe    Africa  1957  48.945 61325  860.7369
##  3              Djibouti    Africa  1952  34.812 63149 2669.5295
##  4 Sao Tome and Principe    Africa  1962  51.893 65345 1071.5511
##  5 Sao Tome and Principe    Africa  1967  54.425 70787 1384.8406
##  6              Djibouti    Africa  1957  37.328 71851 2864.9691
##  7 Sao Tome and Principe    Africa  1972  56.480 76595 1532.9853
##  8 Sao Tome and Principe    Africa  1977  58.550 86796 1737.5617
##  9              Djibouti    Africa  1962  39.693 89898 3020.9893
## 10 Sao Tome and Principe    Africa  1982  60.351 98593 1890.2181
## # ... with 1,694 more rows

Hmm, we didn’t get the most populous countries. By default, arrange sorts the variable in increasing order. We could see the most populous countries by examining the tail of the last command, or we can sort the data.frame by descending population by wrapping the variable in desc():

arrange(gapminder, desc(pop))

## # A tibble: 1,704 x 6
##    country continent  year  lifeExp        pop gdpPercap
##     <fctr>    <fctr> <int>    <dbl>      <int>     <dbl>
##  1   China      Asia  2007 72.96100 1318683096 4959.1149
##  2   China      Asia  2002 72.02800 1280400000 3119.2809
##  3   China      Asia  1997 70.42600 1230075000 2289.2341
##  4   China      Asia  1992 68.69000 1164970000 1655.7842
##  5   India      Asia  2007 64.69800 1110396331 2452.2104
##  6   China      Asia  1987 67.27400 1084035000 1378.9040
##  7   India      Asia  2002 62.87900 1034172547 1746.7695
##  8   China      Asia  1982 65.52500 1000281000  962.4214
##  9   India      Asia  1997 61.76500  959000000 1458.8174
## 10   China      Asia  1977 63.96736  943455000  741.2375
## # ... with 1,694 more rows

arrange can also sort by multiple variables. It will sort the data.frame by the first variable, and if there are any ties in that variable, they will be sorted by the next variable, and so on. Here we sort from newest to oldest, and within year from richest to poorest:

arrange(gapminder, desc(year), desc(gdpPercap))

## # A tibble: 1,704 x 6
##             country continent  year lifeExp       pop gdpPercap
##              <fctr>    <fctr> <int>   <dbl>     <int>     <dbl>
##  1           Norway    Europe  2007  80.196   4627926  49357.19
##  2           Kuwait      Asia  2007  77.588   2505559  47306.99
##  3        Singapore      Asia  2007  79.972   4553009  47143.18
##  4    United States  Americas  2007  78.242 301139947  42951.65
##  5          Ireland    Europe  2007  78.885   4109086  40676.00
##  6 Hong Kong, China      Asia  2007  82.208   6980412  39724.98
##  7      Switzerland    Europe  2007  81.701   7554661  37506.42
##  8      Netherlands    Europe  2007  79.762  16570613  36797.93
##  9           Canada  Americas  2007  80.653  33390141  36319.24
## 10          Iceland    Europe  2007  81.757    301931  36180.79
## # ... with 1,694 more rows

Shoutout Q: Would we get the same output if we switched the order of desc(year) and desc(gdpPercap) in the last line?

mutate()

We have learned how to drop rows, drop columns, and rearrange rows. To make a new column we use the mutate function. As usual, the first argument is a data.frame. The second argument is the name of the new column you want to create, followed by an equal sign, followed by what to put in that column. You can reference other variables in the data.frame, and mutate will treat each row independently. E.g. we can calculate the total GDP of each country in each year by multiplying the per-capita GDP by the population.

mutate(gapminder, total_gdp = gdpPercap * pop)

## # A tibble: 1,704 x 7
##        country continent  year lifeExp      pop gdpPercap   total_gdp
##         <fctr>    <fctr> <int>   <dbl>    <int>     <dbl>       <dbl>
##  1 Afghanistan      Asia  1952  28.801  8425333  779.4453  6567086330
##  2 Afghanistan      Asia  1957  30.332  9240934  820.8530  7585448670
##  3 Afghanistan      Asia  1962  31.997 10267083  853.1007  8758855797
##  4 Afghanistan      Asia  1967  34.020 11537966  836.1971  9648014150
##  5 Afghanistan      Asia  1972  36.088 13079460  739.9811  9678553274
##  6 Afghanistan      Asia  1977  38.438 14880372  786.1134 11697659231
##  7 Afghanistan      Asia  1982  39.854 12881816  978.0114 12598563401
##  8 Afghanistan      Asia  1987  40.822 13867957  852.3959 11820990309
##  9 Afghanistan      Asia  1992  41.674 16317921  649.3414 10595901589
## 10 Afghanistan      Asia  1997  41.763 22227415  635.3414 14121995875
## # ... with 1,694 more rows
…
$331

$339

Advanced: Use dplyr functions and ggplot to plot per-capita GDP versus population for North American countries after 1970. - Once you’ve made the graph, transform both axes to a log10 scale. There are two ways to do this, one by creating new columns in the data frame, and another using functions provided by ggplot to transform the axes. Implement both, in that order. Which do you prefer and why?

C’est ne pas une pipe

Suppose we want to look at all the countries where life expectancy is greater than 80 years, sorted from poorest to richest. First, we filter, then we arrange. We could assign the intermediate data.frame to a variable:

lifeExpGreater80 = filter(gapminder, lifeExp > 80)
(lifeExpGreater80sorted = arrange(lifeExpGreater80, gdpPercap))

## # A tibble: 21 x 8
##             country continent  year lifeExp       pop gdpPercap
##              <fctr>    <fctr> <int>   <dbl>     <int>     <dbl>
##  1      New Zealand   Oceania  2007  80.204   4115771  25185.01
##  2           Israel      Asia  2007  80.745   6426679  25523.28
##  3            Italy    Europe  2002  80.240  57926999  27968.10
##  4            Italy    Europe  2007  80.546  58147733  28569.72
##  5            Japan      Asia  2002  82.000 127065841  28604.59
##  6            Japan      Asia  1997  80.690 125956499  28816.58
##  7            Spain    Europe  2007  80.941  40448191  28821.06
##  8           Sweden    Europe  2002  80.040   8954175  29341.63
##  9 Hong Kong, China      Asia  2002  81.495   6762476  30209.02
## 10           France    Europe  2007  80.657  61083916  30470.02
## # ... with 11 more rows, and 2 more variables: total_gdp <dbl>,
## #   log_gdp <dbl>

In this case it doesn’t much matter, but we make a whole new data.frame (lifeExpGreater80) and only use it once; that’s a little wasteful of system resources, and it clutters our environment. If the data are large, that can be a big problem.

Or, we could nest each function so that it appears on one line:

arrange(filter(gapminder, lifeExp > 80), gdpPercap)

## # A tibble: 21 x 8
##             country continent  year lifeExp       pop gdpPercap
##              <fctr>    <fctr> <int>   <dbl>     <int>     <dbl>
##  1      New Zealand   Oceania  2007  80.204   4115771  25185.01
##  2           Israel      Asia  2007  80.745   6426679  25523.28
##  3            Italy    Europe  2002  80.240  57926999  27968.10
##  4            Italy    Europe  2007  80.546  58147733  28569.72
##  5            Japan      Asia  2002  82.000 127065841  28604.59
##  6            Japan      Asia  1997  80.690 125956499  28816.58
##  7            Spain    Europe  2007  80.941  40448191  28821.06
##  8           Sweden    Europe  2002  80.040   8954175  29341.63
##  9 Hong Kong, China      Asia  2002  81.495   6762476  30209.02
## 10           France    Europe  2007  80.657  61083916  30470.02
## # ... with 11 more rows, and 2 more variables: total_gdp <dbl>,
## #   log_gdp <dbl>

This would become difficult to read if we are performing a number of operations that would require a repeated nesting. But…

There is a better way, and it makes both writing and reading the code easier. The pipe from the magrittr package (which is automatically installed and loaded with dplyr and tidyverse) takes the output of first line, and plugs it in as the first argument of the next line. Since many tidyverse functions expect a data.frame as the first argument and output a data.frame, this works fluidly.

filter(gapminder, lifeExp > 80) %>%
    arrange(gdpPercap)

## # A tibble: 21 x 8
##             country continent  year lifeExp       pop gdpPercap
##              <fctr>    <fctr> <int>   <dbl>     <int>     <dbl>
##  1      New Zealand   Oceania  2007  80.204   4115771  25185.01
##  2           Israel      Asia  2007  80.745   6426679  25523.28
##  3            Italy    Europe  2002  80.240  57926999  27968.10
##  4            Italy    Europe  2007  80.546  58147733  28569.72
##  5            Japan      Asia  2002  82.000 127065841  28604.59
##  6            Japan      Asia  1997  80.690 125956499  28816.58
##  7            Spain    Europe  2007  80.941  40448191  28821.06
##  8           Sweden    Europe  2002  80.040   8954175  29341.63
##  9 Hong Kong, China      Asia  2002  81.495   6762476  30209.02
## 10           France    Europe  2007  80.657  61083916  30470.02
## # ... with 11 more rows, and 2 more variables: total_gdp <dbl>,
## #   log_gdp <dbl>
…
4 %>% sqrt()

## [1] 2

2 ^ 2 %>% sum(1)

## [1] 5

Whatever goes through the pipe becomes the first argument of the function after the pipe. This is convenient, because all dplyr functions produce a data.frame as their output and take a data.frame as the first argument. Since R ignores white-space, we can put each function on a new line, which RStudio will automatically indent, making everything easy to read. Now each line represents a step in a sequential operation. You can read this as “Take the gapminder data.frame, filter to the rows where lifeExp is greater than 80, and arrange by gdpPercap.”

gapminder %>%
    filter(lifeExp > 80) %>%
    arrange(gdpPercap)

## # A tibble: 21 x 8
##             country continent  year lifeExp       pop gdpPercap
##              <fctr>    <fctr> <int>   <dbl>     <int>     <dbl>
##  1      New Zealand   Oceania  2007  80.204   4115771  25185.01
##  2           Israel      Asia  2007  80.745   6426679  25523.28
##  3            Italy    Europe  2002  80.240  57926999  27968.10
##  4            Italy    Europe  2007  80.546  58147733  28569.72
##  5            Japan      Asia  2002  82.000 127065841  28604.59
##  6            Japan      Asia  1997  80.690 125956499  28816.58
##  7            Spain    Europe  2007  80.941  40448191  28821.06
##  8           Sweden    Europe  2002  80.040   8954175  29341.63
##  9 Hong Kong, China      Asia  2002  81.495   6762476  30209.02
## 10           France    Europe  2007  80.657  61083916  30470.02
## # ... with 11 more rows, and 2 more variables: total_gdp <dbl>,
## #   log_gdp <dbl>
…
There are several different summary statistics that can be generated from our data. The R base package provides many built-in functions such as mean, median, min, max, and range. By default, all R functions operating on vectors that contains missing data will return NA. It’s a way to make sure that users know they have missing data, and make a conscious decision on how to deal with it. When dealing with simple statistics like the mean, the easiest way to ignore NA (the missing data) is to use na.rm=TRUE (rm stands for remove). An alternate option is to use the function is.na(), which evaluates to true if the value passed to it is not a number. This function is more useful as a part of a filter, where you can filter out everything that is not a number. For that purpose you would do something like

gapminder %>%
  filter(!is.na(someColumn)) 

The ! symbol negates it, so we’re asking for everything that is not an NA.

We often want to calculate the number of entries within a group. E.g. we might wonder if our dataset is balanced by country. We can do this with the n() function, or dplyr provides a count function as a convenience:

gapminder %>%
    group_by(country) %>%
    summarize(number_entries = n())

## # A tibble: 142 x 2
##        country number_entries
##         <fctr>          <int>
##  1 Afghanistan             12
##  2     Albania             12
##  3     Algeria             12
##  4      Angola             12
##  5   Argentina             12
##  6   Australia             12
##  7     Austria             12
##  8     Bahrain             12
##  9  Bangladesh             12
## 10     Belgium             12
## # ... with 132 more rows

count(gapminder, country)

## # A tibble: 142 x 2
##        country     n
##         <fctr> <int>
##  1 Afghanistan    12
##  2     Albania    12
##  3     Algeria    12
##  4      Angola    12
##  5   Argentina    12
##  6   Australia    12
##  7     Austria    12
##  8     Bahrain    12
##  9  Bangladesh    12
## 10     Belgium    12
## # ... with 132 more rows

We can also do multiple groupings. Suppose we want the maximum life expectancy in each continent for each year. We group by continent and year and calculate the maximum with the max function:

gapminder %>%
    group_by(continent, year) %>%
    summarize(longest_life = max(lifeExp))

## # A tibble: 60 x 3
## # Groups:   continent [?]
##    continent  year longest_life
##       <fctr> <int>        <dbl>
##  1    Africa  1952       52.724
##  2    Africa  1957       58.089
##  3    Africa  1962       60.246
##  4    Africa  1967       61.557
##  5    Africa  1972       64.274
##  6    Africa  1977       67.064
##  7    Africa  1982       69.885
##  8    Africa  1987       71.913
##  9    Africa  1992       73.615
## 10    Africa  1997       74.772
## # ... with 50 more rows
…
max(c(1, 7, 4))

## [1] 7

which.max(c(1, 7, 4))

## [1] 2

Now, back to the question: Where lifeExp is at a maximum, what is the entry in country?

gapminder %>%
    group_by(continent, year) %>%
    summarize(longest_life = max(lifeExp), country = country[which.max(lifeExp)])

## # A tibble: 60 x 4
## # Groups:   continent [?]
##    continent  year longest_life   country
##       <fctr> <int>        <dbl>    <fctr>
##  1    Africa  1952       52.724   Reunion
##  2    Africa  1957       58.089 Mauritius
##  3    Africa  1962       60.246 Mauritius
##  4    Africa  1967       61.557 Mauritius
##  5    Africa  1972       64.274   Reunion
##  6    Africa  1977       67.064   Reunion
##  7    Africa  1982       69.885   Reunion
##  8    Africa  1987       71.913   Reunion
##  9    Africa  1992       73.615   Reunion
## 10    Africa  1997       74.772   Reunion
## # ... with 50 more rows
…
